Climate change effect on Silene acaulis
…
---

# Vital rates 
Effect of climate change on the demography of Silene acaulis in Europe
- #### **Survival**
- #### **Growth**
- #### **Reproduction**

.center[

```
## # A tibble: 25,980 x 14
##    site  plt     year_t ros_t frt_t area_t alive_t nsdl_t year_lag1 ros_lag1
##    <chr> <chr>   <chr>  <dbl> <dbl>  <dbl>   <dbl> <lgl>  <chr>        <dbl>
##  1 SA1   1.16.N. 2019      NA    NA  NA         NA NA     2018            NA
##  2 SA1   1.17.N. 2019      NA    NA  NA         NA NA     2018            NA
##  3 SA1   1N.1    2019      NA     2  37.7        1 NA     2018            NA
##  4 SA1   1N.10   2019      NA    NA  NA         NA NA     2018            NA
##  5 SA1   1N.11   2019      NA    NA  NA         NA NA     2018            NA
##  6 SA1   1N.13   2019      NA    NA  NA         NA NA     2018            NA
##  7 SA1   1N.14   2019      NA    NA  NA         NA NA     2018            NA
##  8 SA1   1N.15   2019      11     1   2.64       1 NA     2018             6
##  9 SA1   1N.16   2019      NA     6   9.11       1 NA     2018            NA
## 10 SA1   1N.17   2019      NA    NA  NA         NA NA     2018            NA
## # ... with 25,970 more rows, and 4 more variables: frt_lag1 <dbl>,
## #   area_lag1 <dbl>, alive_lag1 <dbl>, nsdl_lag1 <dbl>
```
…
---

```r
info_transform_seedling(df_info)
```

```r
info_obj 
```

```
## # A tibble: 622 x 5
##    site  trans     plt   year  alive
##    <chr> <chr>     <chr> <chr> <chr>
##  1 SA1   SA1_id_1  id_1  2012  1    
##  2 SA1   SA1_id_2  id_2  2012  1    
##  3 SA1   SA1_id_3  id_3  2012  1    
##  4 SA1   SA1_id_4  id_4  2012  1    
##  5 SA1   SA1_id_5  id_5  2012  1    
##  6 SA1   SA1_id_6  id_6  2012  1    
##  7 SA1   SA1_id_7  id_7  2012  1    
##  8 SA1   SA1_id_8  id_8  2012  1    
##  9 SA1   SA1_id_9  id_9  2012  1    
## 10 SA1   SA1_id_10 id_10 2012  1    
## # ... with 612 more rows
```
